aaa                   a       a       a       a                   a                             a                             a                             a                                                                               a                   a                   a                   a                   a                   a a            a           a            a  aa           a                                                 a           aa                                                 a                                                 
aaa                   a       a       a       a                   a                             a                             a                             a                                                                               a                   a                   a                   a                   a                   a a            a           a            a  aa           a                                                 a           aa                                                 a                                                 
a
